%!PS-Adobe-3.0
%%BoundingBox: 54 360 564 717
%%Title: Graphics produced by IDL
%%For: Aake@AAKE-T430S, 
%%      C:\cygwin\home\Aake\codes\PPcode\Experiments\light_wave
%%Creator: IDL Version 6.4, Microsoft Windows (Win32 x86 m32)
%%CreationDate: Tue Sep 17 18:35:24 2013
%%DocumentData: Clean7bit
%%Requirements: color
%%LanguageLevel: 1
%%PageOrder: Ascend
%%Pages: (atend)
%%DocumentNeededResources: (atend)
%%EndComments
%%BeginProlog
save
%+ prolog.ps -- Prolog for IDL generated PostScript files
%+ Copyright (c) 1988-2007 ITT Visual Information Solutions. All Rights Reserved.
%v 5
/$IDL_DICT 40 dict def $IDL_DICT begin /bdef { bind def } bind def /C
{currentpoint newpath moveto} bdef /CP {currentpoint} bdef /D {currentpoint
stroke moveto} bdef /F {closepath fill} bdef /K { setgray } bdef /M {moveto}
bdef /N {rmoveto} bdef /P {lineto} bdef /R {rlineto} bdef /S {gsave show
grestore} bdef /X {currentpoint pop} bdef /Z {gsave currentpoint lineto 20
setlinewidth 1 setlinecap stroke grestore} bdef /L0 {[] 0 setdash} bdef /L1
{[40 100] 0 setdash} bdef /L2 {[200 200] 0 setdash} bdef /L3 {[200 100 50
100] 0 setdash} bdef /L4 {[300 100 50 100 50 100 50 100] 0 setdash} bdef /L5
{[400 200] 0 setdash} bdef /STDFONT { findfont exch scalefont setfont } bdef
/ISOFONT { findfont dup length dict begin { 1 index /FID ne {def} {pop pop}
ifelse } forall /Encoding ISOLatin1Encoding def currentdict end /idltmpfont
exch definefont exch scalefont setfont } bdef /ISOBULLET { gsave /Helvetica
findfont exch scalefont setfont (\267) show currentpoint grestore moveto}
bdef /MITERLIMIT { 2.5 setmiterlimit } bdef end
%%EndProlog
%%Page: 0 1
%%PageRequirements: color
%%PageResources: (atend)
%%PageOrientation: Portrait
%%PageBoundingBox: 54 360 564 717
%%BeginPageSetup
save
$IDL_DICT begin 54 360 translate 0.0283465 dup scale MITERLIMIT
%%IncludeResource: font Helvetica
423.333 /Helvetica STDFONT
%%EndPageSetup
40.2467 setlinewidth L0 0.000 0.000 0.000 setrgbcolor 3059 1940 M 14024 0 R
D 3059 1940 M 0 194 R D gsave 3059 1170 translate 0 0 M 1.45782 dup scale
-235.373 0 N
(10) show grestore 6565 1940 M 0 194 R D gsave 6565 1170 translate 0 0 M
1.45782 dup scale -235.373 0 N
(15) show grestore 10071 1940 M 0 194 R D gsave 10071 1170 translate 0 0 M
1.45782 dup scale -235.373 0 N
(20) show grestore 13577 1940 M 0 194 R D gsave 13577 1170 translate 0 0 M
1.45782 dup scale -235.373 0 N
(25) show grestore 17083 1940 M 0 194 R D gsave 17083 1170 translate 0 0 M
1.45782 dup scale -235.373 0 N
(30) show grestore 3760 1940 M 0 97 R D 4461 1940 M 0 97 R D 5162 1940 M
0 97 R D 5863 1940 M 0 97 R D 7266 1940 M 0 97 R D 7967 1940 M 0 97 R D
8668 1940 M 0 97 R D 9369 1940 M 0 97 R D 10772 1940 M 0 97 R D 11473 1940 M
0 97 R D 12174 1940 M 0 97 R D 12875 1940 M 0 97 R D 14278 1940 M 0 97 R D
14979 1940 M 0 97 R D 15680 1940 M 0 97 R D 16381 1940 M 0 97 R D
3059 11629 M 14024 0 R D 3059 11629 M 0 -194 R D 6565 11629 M 0 -194 R D
10071 11629 M 0 -194 R D 13577 11629 M 0 -194 R D 17083 11629 M 0 -194 R D
3760 11629 M 0 -97 R D 4461 11629 M 0 -97 R D 5162 11629 M 0 -97 R D
5863 11629 M 0 -97 R D 7266 11629 M 0 -97 R D 7967 11629 M 0 -97 R D
8668 11629 M 0 -97 R D 9369 11629 M 0 -97 R D 10772 11629 M 0 -97 R D
11473 11629 M 0 -97 R D 12174 11629 M 0 -97 R D 12875 11629 M 0 -97 R D
14278 11629 M 0 -97 R D 14979 11629 M 0 -97 R D 15680 11629 M 0 -97 R D
16381 11629 M 0 -97 R D 3059 1940 M 0 9689 R D 3059 1940 M 280 0 R D
gsave 2897 1940 translate 0 0 M 1.45782 dup scale -729.403 0 N
(-1.5) show grestore 3059 3555 M 280 0 R D gsave 2897 3349 translate 0 0 M
1.45782 dup scale -729.403 0 N
(-1.0) show grestore 3059 5170 M 280 0 R D gsave 2897 4964 translate 0 0 M
1.45782 dup scale -729.403 0 N
(-0.5) show grestore 3059 6785 M 280 0 R D gsave 2897 6579 translate 0 0 M
1.45782 dup scale -588.433 0 N
(0.0) show grestore 3059 8399 M 280 0 R D gsave 2897 8194 translate 0 0 M
1.45782 dup scale -588.433 0 N
(0.5) show grestore 3059 10014 M 280 0 R D gsave 2897 9809 translate 0 0 M
1.45782 dup scale -588.433 0 N
(1.0) show grestore 3059 11629 M 280 0 R D gsave 2897 11270 translate 0 0 M
1.45782 dup scale -588.433 0 N
(1.5) show grestore 3059 2263 M 140 0 R D 3059 2586 M 140 0 R D 3059 2909 M
140 0 R D 3059 3232 M 140 0 R D 3059 3878 M 140 0 R D 3059 4201 M 140 0 R D
3059 4524 M 140 0 R D 3059 4847 M 140 0 R D 3059 5493 M 140 0 R D
3059 5816 M 140 0 R D 3059 6139 M 140 0 R D 3059 6462 M 140 0 R D
3059 7107 M 140 0 R D 3059 7430 M 140 0 R D 3059 7753 M 140 0 R D
3059 8076 M 140 0 R D 3059 8722 M 140 0 R D 3059 9045 M 140 0 R D
3059 9368 M 140 0 R D 3059 9691 M 140 0 R D 3059 10337 M 140 0 R D
3059 10660 M 140 0 R D 3059 10983 M 140 0 R D 3059 11306 M 140 0 R D
17083 1940 M 0 9689 R D 17083 1940 M -281 0 R D 17083 3555 M -281 0 R D
17083 5170 M -281 0 R D 17083 6785 M -281 0 R D 17083 8399 M -281 0 R D
17083 10014 M -281 0 R D 17083 11629 M -281 0 R D 17083 2263 M -141 0 R D
17083 2586 M -141 0 R D 17083 2909 M -141 0 R D 17083 3232 M -141 0 R D
17083 3878 M -141 0 R D 17083 4201 M -141 0 R D 17083 4524 M -141 0 R D
17083 4847 M -141 0 R D 17083 5493 M -141 0 R D 17083 5816 M -141 0 R D
17083 6139 M -141 0 R D 17083 6462 M -141 0 R D 17083 7107 M -141 0 R D
17083 7430 M -141 0 R D 17083 7753 M -141 0 R D 17083 8076 M -141 0 R D
17083 8722 M -141 0 R D 17083 9045 M -141 0 R D 17083 9368 M -141 0 R D
17083 9691 M -141 0 R D 17083 10337 M -141 0 R D 17083 10660 M -141 0 R D
17083 10983 M -141 0 R D 17083 11306 M -141 0 R D 3058 10014 M 1 0 R 701 0 R
701 0 R 701 0 R 701 0 R 702 0 R 701 0 R 701 0 R 701 0 R 701 0 R 702 0 R
701 -9 R 701 -116 R 701 -1249 R 701 -3711 R 702 -1249 R 701 -116 R 701 -9 R
701 0 R 701 0 R 701 0 R D L1 3058 9952 M 1 1 R 701 275 R 701 -37 R
701 -333 R 701 -129 R 702 233 R 701 605 R 701 -390 R 701 -766 R 701 228 R
702 702 R 701 171 R 701 -772 R 701 -1843 R 701 -2294 R 702 -1597 R
701 -624 R 701 7 R 701 102 R 701 -34 R 701 175 R D L3 3058 10028 M 1 1 R
701 6 R 701 -20 R 701 -1 R 701 -34 R 702 73 R 701 47 R 701 -104 R 701 -47 R
701 0 R 702 61 R 701 233 R 701 -176 R 701 -1375 R 701 -2168 R 702 -1808 R
701 -1053 R 701 -374 R 701 36 R 701 157 R 701 98 R D L2 3058 10311 M 1 1 R
701 -401 R 701 -250 R 701 353 R 701 256 R 702 48 R 701 -470 R 701 -250 R
701 138 R 701 685 R 702 346 R 701 -284 R 701 -1656 R 701 -1774 R 701 -1512 R
702 -1150 R 701 -828 R 701 192 R 701 -142 R 701 -132 R 701 36 R D
gsave 6660 6929 translate 0 0 M 1.2074 dup scale
(initial) show grestore L0 6300 7030 M -2160 0 R D
gsave 6660 6048 translate 0 0 M 1.2074 dup scale
(explicit) show grestore L1 6300 6148 M -2160 0 R D
gsave 6660 5166 translate 0 0 M 1.2074 dup scale
(implicit, emf=0.504) show grestore L2 6300 5266 M -2160 0 R D
gsave 6660 4284 translate 0 0 M 1.2074 dup scale
(explicit, e_filter=0.002) show grestore L3 6300 4384 M -2160 0 R D
%%PageTrailer
end
restore
showpage
%%PageResources: font Helvetica
%%Trailer
restore
%%Pages: 1
%%DocumentNeededResources: font Helvetica
%%EOF
